…
Finally, we use `down_sample2` to down-sample the observed data since
all 6000+ observations are not needed to approximate the multi-modal
distribution of median log2 R ratios. Since the down-sampling is random,
we set a seed for reproducibility.

``` r
set.seed(1234)
downsampled.data <- down_sample2(batched.data, min_size=250) 
downsampled.data
```

    ## # A tibble: 1,506 x 6
    ##    id      oned provisional_batch batch_labels likely_deletion batch
    ##    <chr>  <dbl> <chr>             <chr>        <lgl>           <int>
    ##  1 3999  -0.062 WG0040402-MSA1    1            FALSE               1
    ##  2 5760   0.062 WG0048476-MSA1    1            FALSE               1
    ##  3 3060  -0.524 WG0052036-MSA1    1            FALSE               1
    ##  4 5968   0.009 WG0046854-MSA1    1            FALSE               1
    ##  5 3424   0.019 WG0039764-MSA1    1            FALSE               1
    ##  6 3028   0.048 WG0046854-MSA1    1            FALSE               1
    ##  7 1886  -0.058 WG0061186-MSA1    1            FALSE               1
    ##  8 2735   0.044 WG0052033-MSA1    1            FALSE               1
    ##  9 1942   0     WG0046853-MSA1    1            FALSE               1
    ## 10 2808   0.052 WG0040404-MSA1    1            FALSE               1
    ## # … with 1,496 more rows
…
``` r
full <- upsample2(gmodel, full.data)
```

    ## Joining, by = c("batch", "component")

``` r
full
```

    ## # A tibble: 6,038 x 8
    ## # Groups:   id [6,038]
    ##    id    batch copynumber      cn_0     cn_1  cn_2  cn_3  cn_4
    ##    <chr> <dbl>      <int>     <dbl>    <dbl> <dbl> <dbl> <dbl>
    ##  1 1         1          2 0.0000768 7.99e-12  1.00     0     0
    ##  2 10        1          2 0.0000685 1.28e-13  1.00     0     0
    ##  3 100       1          2 0.0000851 2.25e-11  1.00     0     0
    ##  4 1000      1          2 0.000251  5.01e-17  1.00     0     0
    ##  5 1001      1          2 0.0000769 2.00e-14  1.00     0     0
    ##  6 1002      1          2 0.0000678 8.52e-13  1.00     0     0
    ##  7 1003      1          2 0.0000717 3.18e-12  1.00     0     0
    ##  8 1004      1          2 0.0000673 3.13e-13  1.00     0     0
    ##  9 1005      1          2 0.0000722 3.52e-12  1.00     0     0
    ## 10 1006      1          2 0.0000959 5.74e-11  1.00     0     0
    ## # … with 6,028 more rows
…
