…
```r
provisional_batch <- se2$Sample.Plate
full.data <- median_summary(se2,
                            provisional_batch=provisional_batch,
                            assay_index=2,
                            THR=-1)
full.data
```

```
## # A tibble: 6,038 x 6
##    id      oned provisional_batch batch batch_labels likely_deletion
##    <chr>  <dbl> <chr>             <dbl> <chr>        <lgl>          
##  1 1     -0.019 WG0052036-MSA1        1 1            FALSE          
##  2 2      0.026 WG0061302-MSA1        1 1            FALSE          
##  3 3      0.05  WG0061310-MSA1        1 1            FALSE          
##  4 4     -0.019 WG0046859-MSA1        1 1            FALSE          
##  5 5      0.016 WG0060759-MSA1        1 1            FALSE          
##  6 6     -0.056 WG0037025-MSA1        1 1            FALSE          
##  7 7      0.085 WG0046833-MSA1        1 1            FALSE          
##  8 8      0.049 WG0047852-MSA1        1 1            FALSE          
##  9 9     -0.059 WG0061309-MSA1        1 1            FALSE          
## 10 10     0.006 WG0052033-MSA1        1 1            FALSE          
## # … with 6,028 more rows
```
…
```r
assays(mb)
```

```
## # A tibble: 1,608 x 7
##    id      oned provisional_bat… batch_labels likely_deletion batch is_simulated
##    <chr>  <dbl> <chr>            <chr>        <lgl>           <int> <lgl>       
##  1 3830  -0.269 WG0043207-MSA1   1            FALSE               1 FALSE       
##  2 793    0.015 WG0052036-MSA1   1            FALSE               1 FALSE       
##  3 1907   0.086 WG0053551-MSA1   1            FALSE               1 FALSE       
##  4 356    0.078 WG0052036-MSA1   1            FALSE               1 FALSE       
##  5 4840   0.001 WG0042935-MSA1   1            FALSE               1 FALSE       
##  6 3984   0.087 WG0042935-MSA1   1            FALSE               1 FALSE       
##  7 5797   0.03  WG0053550-MSA1   1            FALSE               1 FALSE       
##  8 1232   0.021 WG0052036-MSA1   1            FALSE               1 FALSE       
##  9 2002   0.061 WG0053551-MSA1   1            FALSE               1 FALSE       
## 10 4242   0.055 WG0042932-MSA1   1            FALSE               1 FALSE       
## # … with 1,598 more rows
```
…
```r
## Provide probabilistic estimates of copy number for the full study
full.study <- upsample2(genotype.model, full.data)
```

```
## Joining, by = c("batch", "component")
```

```r
full.study
```

```
## # A tibble: 6,038 x 8
## # Groups:   id [6,038]
##    id    batch copynumber  cn_0     cn_1  cn_2     cn_3  cn_4
##    <chr> <dbl>      <int> <dbl>    <dbl> <dbl>    <dbl> <dbl>
##  1 1         1          2     0 1.56e- 8  1.00 2.02e-12     0
##  2 2         1          2     0 2.72e-10  1.00 2.68e-10     0
##  3 3         1          2     0 4.32e-11  1.00 4.20e- 9     0
##  4 4         1          2     0 1.56e- 8  1.00 2.02e-12     0
##  5 5         1          2     0 6.26e-10  1.00 8.76e-11     0
##  6 6         1          2     0 7.83e- 7  1.00 4.76e-14     0
##  7 7         1          2     0 4.38e-12  1.00 2.79e- 7     0
##  8 8         1          2     0 4.64e-11  1.00 3.73e- 9     0
##  9 9         1          2     0 1.10e- 6  1.00 3.55e-14     0
## 10 10        1          2     0 1.50e- 9  1.00 2.92e-11     0
## # … with 6,028 more rows
```
…
