CNPBayes: Bayesian copy number estimation and association in large-scale studies
…
Figure 2: The diploid component containing the bulk of the data is not quite symmetric and the left and right tails partially overlap with smaller peaks containing single-copy loss and gains

4 Batch effects

To format the data in a more consistent format, we use the function median_summary. This function additionally will additionally attach a variable that many explain technical variation between groups of samples through the provisional_batch argument. Examples of a provisional batch variable include the date genomic libraries were prepared, the source of DNA (i.e., blood, buccal, saliva, etc), lab technician, or study site. Here, we use the PCR plate as the provisional batch.

provisional_batch <- se2$Sample.Plate
full.data <- median_summary(se2,
                            provisional_batch=provisional_batch,
                            assay_index=2,
                            THR=-1)
full.data

## # A tibble: 6,038 x 6
##    id      oned provisional_batch batch batch_labels likely_deletion
##    <chr>  <dbl> <chr>             <dbl> <chr>        <lgl>          
##  1 1     -0.019 WG0052036-MSA1        1 1            FALSE          
##  2 2      0.026 WG0061302-MSA1        1 1            FALSE          
##  3 3      0.05  WG0061310-MSA1        1 1            FALSE          
##  4 4     -0.019 WG0046859-MSA1        1 1            FALSE          
##  5 5      0.016 WG0060759-MSA1        1 1            FALSE          
##  6 6     -0.056 WG0037025-MSA1        1 1            FALSE          
##  7 7      0.085 WG0046833-MSA1        1 1            FALSE          
##  8 8      0.049 WG0047852-MSA1        1 1            FALSE          
##  9 9     -0.059 WG0061309-MSA1        1 1            FALSE          
## 10 10     0.006 WG0052033-MSA1        1 1            FALSE          
## #  with 6,028 more rows
…
mb <- MultiBatch(data=downsampled.data)
mb

## Model name: MB3 
##    n. obs              : 1608 
##    n. batches          : 8 
##    k                   : 3 
##    nobs/batch          : 201 201 202 203 200 201 200 200 
##    saved mcmc          : 1000 
##    log lik (s)         :

assays(mb)

## # A tibble: 1,608 x 7
##    id      oned provisional_bat batch_labels likely_deletion batch is_simulated
##    <chr>  <dbl> <chr>            <chr>        <lgl>           <int> <lgl>       
##  1 3465   0.037 WG0061186-MSA1   1            FALSE               1 FALSE       
##  2 686   -0.027 WG0046834-MSA1   1            FALSE               1 FALSE       
##  3 1760   0.003 WG0061188-MSA1   1            FALSE               1 FALSE       
##  4 295   -0.324 WG0048475-MSA1   1            FALSE               1 FALSE       
##  5 4373   0.015 WG0039760-MSA1   1            FALSE               1 FALSE       
##  6 3658  -0.013 WG0046834-MSA1   1            FALSE               1 FALSE       
##  7 5178   0.031 WG0060763-MSA1   1            FALSE               1 FALSE       
##  8 1101  -0.011 WG0052036-MSA1   1            FALSE               1 FALSE       
##  9 1847   0.024 WG0046831-MSA1   1            FALSE               1 FALSE       
## 10 3849  -0.357 WG0046832-MSA1   1            FALSE               1 FALSE       
## #  with 1,598 more rows
…
